[{
  "id": 1,
  "fecha": "3/21/2019",
  "importe": 12,
  "latitud": 36.2407094,
  "longitud": 139.1910402
}, {
  "id": 2,
  "fecha": "9/27/2018",
  "importe": 25,
  "latitud": -8.2517848,
  "longitud": 111.755504
}, {
  "id": 3,
  "fecha": "1/3/2019",
  "importe": 24,
  "latitud": -45.4035437,
  "Longitud": -72.6864154
}, {
  "id": 4,
  "fecha": "22/06/2019",
  "importe": 24,
  "latitud": -8.098655,
  "longitud": 112.6824377
}, {
  "id": 5,
  "fecha": "17/05/2019",
  "importe": 63,
  "latitud": 13.4712468,
  "longitud": 101.0978724
}, {
  "id": 6,
  "fecha": "8/21/2018",
  "importe": 98,
  "latitud": 5.8901373,
  "longitud": 14.5480484
}, {
  "id": 7,
  "fecha": "7/17/2018",
  "importe": 35,
  "latitud": 56.6810923,
  "longitud": 12.8148182
}, {
  "id": 8,
  "fecha": "5/11/2019",
  "importe": 56,
  "latitud": 49.9454719,
  "longitud": 21.8376406
}, {
  "id": 9,
  "fecha": "3/31/2019",
  "importe": 67,
  "latitud": 45.2581286,
  "longitud": 17.8291657
}, {
  "id": 10,
  "fecha": "10/4/2018",
  "importe": 50,
  "latitud": 30.4322645,
  "longitud": 72.3382454
}, {
  "id": 11,
  "fecha": "4/6/2019",
  "importe": 41,
  "latitud": 34.5871389,
  "longitud": 73.912451
}, {
  "id": 12,
  "fecha": "4/18/2019",
  "importe": 77,
  "latitud": -21.4152377,
  "longitud": -50.0773225
}, {
  "id": 13,
  "fecha": "3/4/2019",
  "importe": 10,
  "latitud": 14.6099284,
  "longitud": 121.0348405
}, {
  "id": 14,
  "fecha": "5/21/2019",
  "importe": 52,
  "latitud": 59.1575081,
  "longitud": 18.1350248
}, {
  "id": 15,
  "fecha": "8/3/2018",
  "importe": 99,
  "latitud": -6.6858425,
  "Longitud": -36.6602483
}, {
  "id": 16,
  "fecha": "24/11/2018",
  "importe": 54,
  "latitud": 17.228242,
  "longitud": 120.6124166
}, {
  "id": 17,
  "fecha": "4/23/2019",
  "importe": 39,
  "latitud": 52.222333,
  "longitud": 104.022
}, {
  "id": 18,
  "fecha": "6/27/2019",
  "importe": 3,
  "latitud": 33.7746886,
  "longitud": -84.2953464
}, {
  "id": 19,
  "fecha": "20/08/2018",
  "importe": 95,
  "latitud": 54.5107844,
  "longitud": 53.4440122
}, {
  "id": 20,
  "fecha": "5/6/2019",
  "importe": 82,
  "latitud": -11.1863289,
  "longitud": -76.6481299
}, {
  "id": 21,
  "fecha": "11/7/2018",
  "importe": 11,
  "latitud": 46.6693059,
  "longitud": 5.5466073
}, {
  "id": 22,
  "fecha": "15/01/2019",
  "importe": 92,
  "latitud": 60.4872057,
  "longitud": 15.4102793
}, {
  "id": 23,
  "fecha": "7/21/2018",
  "importe": 8,
  "latitud": "-8.2394",
  "longitud": "112.2878"
}, {
  "id": 24,
  "fecha": "12/13/2018",
  "importe": 54,
  "latitud": 13.5616918,
  "longitud": -15.8304975
}, {
  "id": 25,
  "fecha": "5/12/2019",
  "importe": 100,
  "latitud": 4.4796434,
  "longitud": -75.5975296
}, {
  "id": 26,
  "fecha": "1/14/2019",
  "importe": 70,
  "latitud": 48.8567544,
  "longitud": 2.3510471
}, {
  "id": 27,
  "fecha": "12/23/2018",
  "importe": 32,
  "latitud": 49.7575973,
  "longitud": 16.6635314
}, {
  "id": 28,
  "fecha": "5/26/2019",
  "importe": 25,
  "latitud": -13.2513786,
  "Longitud": -43.4112394
}, {
  "id": 29,
  "fecha": "12/5/2018",
  "importe": 52,
  "latitud": "36.39535",
  "longitud": "36.6889"
}, {
  "id": 30,
  "fecha": "30/01/2019",
  "importe": 97,
  "latitud": 18.8962696,
  "longitud": -96.9417785
}, {
  "id": 31,
  "fecha": "4/1/2019",
  "importe": 16,
  "latitud": 32.51,
  "longitud": -93.75
}, {
  "id": 32,
  "fecha": "25/10/2018",
  "importe": 5,
  "latitud": 42.8883195,
  "longitud": 74.8448648
}, {
  "id": 33,
  "fecha": "25/08/2018",
  "importe": 63,
  "latitud": -8.4589273,
  "longitud": 118.5155901
}, {
  "id": 34,
  "fecha": "8/21/2018",
  "importe": 50,
  "latitud": 14.6760848,
  "longitud": 120.9873093
}, {
  "id": 35,
  "fecha": "5/11/2019",
  "importe": 75,
  "latitud": 50.009103,
  "longitud": 22.8837844
}, {
  "id": 36,
  "fecha": "6/6/2019",
  "importe": 87,
  "latitud": 23.7077947,
  "longitud": 120.5409089
}, {
  "id": 37,
  "fecha": "20/11/2018",
  "importe": 54,
  "latitud": 52.138523,
  "longitud": 16.8924785
}, {
  "id": 38,
  "fecha": "5/10/2019",
  "importe": 18,
  "latitud": 49.9637141,
  "longitud": 19.9370144
}, {
  "id": 39
  "fecha": "31/05/2019",
  "importe": 2,
  "latitud": 54.5071478,
  "longitud": 30.4119546
}, {
  "id": 40,
  "fecha": "25/10/2018",
  "importe": 23,
  "latitud": -7.7276103,
  "longitud": 110.8582722
}, {
  "id": 41,
  "fecha": "3/30/2019",
  "importe": 95,
  "latitud": 22.69569,
  "longitud": 112.225334
}, {
  "id": 42,
  "fecha": "6/19/2019",
  "importe": 76,
  "latitud": 54.126654,
  "longitud": 22.3618689
}, {
  "id": 43,
  "fecha": "4/17/2019",
  "importe": 48,
  "latitud": 53.1371437,
  "longitud": 19.2779375
}, {
  "id": 44,
  "fecha": "7/4/2019",
  "importe": 50,
  "latitud": -8.4691756,
  "longitud": 116.4134873
}, {
  "id": 45,
  "fecha": "24/8/2018",
  "importe": 41,
  "latitud": 59.4135021,
  "longitud": 17.9194345
}, {
  "id": 46,
  "fecha": "15/10/2018",
  "importe": 95,
  "latitud": 15.8107755,
  "Longitud": -87.4133145
}, {
  "id": 47,
  "fecha": "28/12/2018",
  "importe": 35,
  "latitud": 41.4954461,
  "longitud": -8.575938
}, {
  "id": 48,
  "fecha": "2/19/2019",
  "importe": 92,
  "latitud": 19.1527452,
  "longitud": 101.1539414
}, {
  "id": 49,
  "fecha": "9/8/2018",
  "importe": 39,
  "latitud": 50.4853152,
  "longitud": 30.4983392
}, {
  "id": 50,
  "fecha": "9/6/2018",
  "importe": 82,
  "latitud": 43.8832308,
  "longitud": 141.7351885
}, {
  "id": 51,
  "fecha": "15/10/2018",
  "importe": 22,
  "latitud": 59.3326658,
  "longitud": 18.056792
}, {
  "id": 52,
  "fecha": "7/16/2018",
  "importe": 79,
  "latitud": 57.7306723,
  "longitud": 12.0586546
}, {
  "id": 53,
  "fecha": "20/08/2018",
  "importe": 95,
  "latitud": 38.9622585,
  "Longitud": -9.3855536
}, {
  "id": 54,
  "fecha": "2/9/2019",
  "importe": 59,
  "latitud": 8.920465,
  "longitud": 125.008956
}, {
  "id": 55,
  "fecha": "20/10/2018",
  "importe": 9,
  "latitud": 33.145166,
  "longitud": 117.888855
}, {
  "id": 56,
  "fecha": "20/08/2018",
  "importe": 70,
  "latitud": 40.2507786,
  "longitud": 44.419895
}, {
  "id": 57,
  "fecha": "2/3/2019",
  "importe": 77,
  "latitud": 50.5079152,
  "longitud": 16.0789406
}, {
  "id": 58,
  "fecha": "2/23/2019",
  "importe": 55,
  "latitud": 3.6426789,
  "longitud": 10.7830826
}, {
  "id": 59,
  "fecha": "8/18/2018",
  "importe": 47,
  "latitud": -8.2517133,
  "longitud": 111.4365318
}, {
  "id": 60,
  "fecha": "21/04/2019",
  "importe": 78,
  "latitud": 15.098618,
  "longitud": -90.318729
}, {
  "id": 61,
  "fecha": "19/11/2018",
  "importe": 83,
  "latitud": 50.0809432,
  "longitud": 8.8107219
}, {
  "id": 62,
  "fecha": "7/6/2019",
  "importe": 7,
  "latitud": 45.9397564,
  "longitud": 19.203958
}, {
  "id": 63,
  "fecha": "24/09/2018",
  "importe": 11,
  "latitud": 46.4979131,
  "longitud": 15.6702113
}, {
  "id": 64,
  "fecha": "23/11/2018",
  "importe": 62,
  "latitud": -1.7232202,
  "longitud": 105.471249
}, {
  "id": 65,
  "fecha": "7/18/2018",
  "importe": 49,
  "latitud": -8.3980126,
  "longitud": 117.1470637
}, {
  "id": 66,
  "fecha": "21/09/2018",
  "importe": 66,
  "latitud": 8.2321816,
  "longitud": 124.602106
}, {
  "id": 67,
  "fecha": "11/13/2018",
  "importe": 67,
  "latitud": 42.6962642,
  "longitud": 2.8797149
}, {
  "id": 68,
  "fecha": "10/3/2018",
  "importe": 18,
  "latitud": -7.6184408,
  "longitud": 110.8072159
}, {
  "id": 69,
  "fecha": "8/9/2018",
  "importe": 19,
  "latitud": 22.691253,
  "longitud": 114.346251
}, {
  "id": 70,
  "fecha": "7/26/2018",
  "importe": 17,
  "latitud": -34.5795379,
  "Longitud": -58.487763
}, {
  "id": 71,
  "fecha": "24/06/2019",
  "importe": 14,
  "latitud": 48.8902362,
  "longitud": 36.308001
}, {
  "id": 72,
  "fecha": "5/29/2019",
  "importe": 92,
  "latitud": 39.982718,
  "longitud": 117.078294
}, {
  "id": 73,
  "fecha": "8/14/2018",
  "importe": 40,
  "latitud": 3.2093353,
  "longitud": 101.6716295
}, {
  "id": 74,
  "fecha": "5/23/2019",
  "importe": 25,
  "latitud": 23.106401,
  "longitud": 113.459749
}, {
  "id": 75,
  "fecha": "7/29/2018",
  "importe": 13,
  "latitud": 40.4868316,
  "longitud": 23.5963957
}, {
  "id": 76,
  "fecha": "12/1/2018",
  "importe": 16,
  "latitud": 43.4945737,
  "longitud": 5.8978018
}, {
  "id": 77,
  "fecha": "12/17/2018",
  "importe": 77,
  "latitud": 35.2868468,
  "longitud": 138.8850313
}, {
  "id": 78,
  "fecha": "7/7/2019",
  "importe": 67,
  "latitud": 35.819227,
  "longitud": 108.019549
}, {
  "id": 79,
  "fecha": "4/11/2019",
  "importe": 57,
  "latitud": 28.578756,
  "longitud": 89.227769
}, {
  "id": 80,
  "fecha": "25/03/2019",
  "importe": 57,
  "latitud": 1.3105389,
  "longitud": 103.925603
}, {
  "id": 81,
  "fecha": "11/2/2018",
  "importe": 36,
  "latitud": 51.0720479,
  "longitud": 16.881153
}, {
  "id": 82,
  "fecha": "30/01/2019",
  "importe": 34,
  "latitud": "-6.948",
  "longitud": "113.1874"
}, {
  "id": 83,
  "fecha": "20/06/2019",
  "importe": 42,
  "latitud": 50.0429768,
  "longitud": 46.8886722
}, {
  "id": 84,
  "fecha": "7/17/2018",
  "importe": 73,
  "latitud": "-8.802",
  "longitud": "121.3118"
}, {
  "id": 85,
  "fecha": "2/19/2019",
  "importe": 2,
  "latitud": 65.8261477,
  "longitud": 21.7037935
}, {
  "id": 86,
  "fecha": "3/17/2019",
  "importe": 63,
  "latitud": 41.0919871,
  "Longitud": -7.8038268
}, {
  "id": 87,
  "fecha": "2/1/2019",
  "importe": 91,
  "latitud": 10.2995028,
  "longitud": -61.175278
}, {
  "id": 88,
  "fecha": "8/18/2018",
  "importe": 92,
  "latitud": 44.8158674,
  "longitud": 20.4734419
}, {
  "id": 89,
  "fecha": "20/12/2018",
  "importe": 71,
  "latitud": -6.3396406,
  "longitud": 106.9889904
}, {
  "id": 90,
  "fecha": "12/02/2019",
  "importe": 34,
  "latitud": -0.6209357,
  "longitud": 116.8097817
}, {
  "id": 91,
  "fecha": "30/11/2018",
  "importe": 99,
  "latitud": 47.5113895,
  "longitud": 1.820875
}, {
  "id": 92,
  "fecha": "6/8/2019",
  "importe": 86,
  "latitud": -7.8082295,
  "longitud": 113.0905501
}, {
  "id": 93,
  "fecha": "29/04/2019",
  "importe": 5,
  "latitud": 8.0155697,
  "longitud": -71.7637309
}, {
  "id": 94,
  "fecha": "4/4/2019",
  "importe": 18,
  "latitud": 59.3043475,
  "longitud": 18.0873579
}, {
  "id": 95,
  "fecha": "5/3/2019",
  "importe": 50,
  "latitud": -6.6018462,
  "longitud": 111.0654148
}, {
  "id": 96,
  "fecha": "20/11/2018",
  "importe": 28,
  "latitud": 59.4445121,
  "longitud": 18.071399
}, {
  "id": 97,
  "fecha": "6/27/2019",
  "importe": 23,
  "latitud": 30.958308,
  "longitud": 112.194147
}, {
  "id": 98,
  "fecha": "31/12/2018",
  "importe": 22,
  "latitud": 46.8435126,
  "longitud": 74.9809805
}, {
  "id": 99,
  "fecha": "12/2/2018",
  "importe": 95,
  "latitud": -9.5541709,
  "longitud": 119.0285355
}, {
  "id": 100,
  "fecha": "11/1/2018",
  "importe": 24,
  "latitud": 28.3740107,
  "longitud": 121.3749642
}]
